<svg xmlns="http://www.w3.org/2000/svg" width="30.805" height="30.951" viewBox="0 0 30.805 30.951">
  <g id="Group_1952" data-name="Group 1952" transform="translate(-16 -70.455)">
    <path id="Path_865" data-name="Path 865" d="M46.657,90.45,42.395,76.04a3.544,3.544,0,0,0-2.671-2.465L31.386,71.82a.971.971,0,0,0-.195-.021l-.059-.064a3.962,3.962,0,0,0-2.894-1.28h-.017a3.963,3.963,0,0,0-2.888,1.255l-8.38,8.977A3.536,3.536,0,0,0,16,83.107V97.858a3.551,3.551,0,0,0,3.547,3.547H36.783a3.551,3.551,0,0,0,3.547-3.547v-1.01l4.491-2.209A3.539,3.539,0,0,0,46.657,90.45ZM43.967,92.9l-3.637,1.788v-2.16a.967.967,0,0,0-1.935,0v5.327a1.614,1.614,0,0,1-1.612,1.612H19.547a1.614,1.614,0,0,1-1.612-1.612V83.107a1.607,1.607,0,0,1,.434-1.1l8.38-8.977a1.994,1.994,0,0,1,1.473-.64h.009a2,2,0,0,1,1.477.653l8.265,9.007a1.608,1.608,0,0,1,.424,1.09V86.9a.967.967,0,0,0,1.935,0V83.14a3.538,3.538,0,0,0-.934-2.4l-5.98-6.517,5.908,1.244a1.611,1.611,0,0,1,1.214,1.121L44.8,91A1.609,1.609,0,0,1,43.967,92.9Z" fill="#fff"/>
    <path id="Path_866" data-name="Path 866" d="M141.027,147.638h2.019a.967.967,0,0,0,0-1.935h-2.019a.967.967,0,0,0,0,1.935Z" transform="translate(-114.058 -69.181)" fill="#fff"/>
    <path id="Path_867" data-name="Path 867" d="M88.323,210.94,75.952,223.311a.967.967,0,0,0,1.368,1.368l12.371-12.371a.967.967,0,0,0-1.368-1.368Z" transform="translate(-54.858 -128.898)" fill="#fff"/>
    <path id="Path_868" data-name="Path 868" d="M102.219,199.385a2.946,2.946,0,1,0-2.946-2.946A2.95,2.95,0,0,0,102.219,199.385Zm0-3.958a1.012,1.012,0,1,1-1.012,1.012A1.013,1.013,0,0,1,102.219,195.427Z" transform="translate(-76.559 -113.118)" fill="#fff"/>
    <path id="Path_869" data-name="Path 869" d="M166.312,329.406a2.946,2.946,0,1,0,2.946,2.946A2.95,2.95,0,0,0,166.312,329.406Zm0,3.958a1.012,1.012,0,1,1,1.012-1.012A1.013,1.013,0,0,1,166.312,333.364Z" transform="translate(-135.485 -238.074)" fill="#fff"/>
  </g>
</svg>
