<svg xmlns="http://www.w3.org/2000/svg" width="44.93" height="43.3" viewBox="0 0 44.93 43.3">
  <g id="Artboard_1" transform="translate(0 0.098)">
    <path id="Path_602" data-name="Path 602" d="M132.142,10.094c.9.841,2.612.075,5.494-.465,2.732-.51,4.368-.54,5.434-2.026a4.536,4.536,0,0,0,.63-3.813,5.391,5.391,0,0,0-3-3.242,6.087,6.087,0,0,0-5.779.18,8.215,8.215,0,0,0-2.777,4.053C131.271,7.347,131.2,9.223,132.142,10.094Z" transform="translate(-111.789 0)" fill="#fff"/>
    <path id="Path_603" data-name="Path 603" d="M43.139,9.713c2.867.54,4.578,1.306,5.494.465.946-.871.871-2.747,0-5.314A8.074,8.074,0,0,0,45.856.827a6.088,6.088,0,0,0-5.779-.18,5.352,5.352,0,0,0-3,3.242A4.59,4.59,0,0,0,37.7,7.7C38.786,9.173,40.407,9.2,43.139,9.713Z" transform="translate(-31.371 -0.085)" fill="#fff"/>
    <path id="Path_604" data-name="Path 604" d="M265.584,79.966c0-.9-.645-1.366-1.741-1.366a11.661,11.661,0,0,0-1.366.075c-.045.375-.075,3.633-.045,3.888a8.495,8.495,0,0,0,1.066-.015c.03-.18.015-.886.03-1.276h.255c.48.6.946,1.381.976,1.381a2.609,2.609,0,0,0,.946-.405,8.107,8.107,0,0,0-.811-1.171A1.113,1.113,0,0,0,265.584,79.966Zm-1.666.45a2.656,2.656,0,0,1-.345-.015v-.841a1.913,1.913,0,0,1,.3-.015c.45,0,.585.18.585.45S264.233,80.416,263.918,80.416Z" transform="translate(-223.131 -66.914)" fill="#fff"/>
    <path id="Path_605" data-name="Path 605" d="M249.133,65a3.963,3.963,0,0,0-4.233,4.188c0,2.507,1.771,3.993,4.263,3.993a4.091,4.091,0,0,0-.03-8.181Zm.075,7.22a3.009,3.009,0,0,1-3.2-2.957,2.883,2.883,0,0,1,3.2-3.212c1.951,0,2.807,1.606,2.807,3.212a2.681,2.681,0,0,1-2.807,2.957Z" transform="translate(-208.241 -55.354)" fill="#fff"/>
    <path id="Path_606" data-name="Path 606" d="M3.2,92.592c-.375.045-.21,12.128-.165,19.739C3.077,116.264.57,117.66,0,117.78a6.728,6.728,0,0,0,3.557,4.173c3.032-1.051,5.9-3.347,5.9-9.156,0-7.745.5-19.739.405-19.874A19.193,19.193,0,0,0,3.2,92.592Z" transform="translate(0 -78.754)" fill="#fff"/>
    <path id="Path_607" data-name="Path 607" d="M92.6,93.3c-1.681,0-4.788.5-6.184,2.942A6,6,0,0,0,81.174,93.3a6.439,6.439,0,0,0-5.209,2.056c-.015.736-.045,1.681-.075,2.747-.03.916-.06,1.936-.09,3.017a2.885,2.885,0,0,1,2.837-2.041c2.131,0,2.7,1.516,2.7,3.512,0,1.4-.21,10.958-.045,11.048.075.075,6.259.33,6.3-.045.12-2.041.24-8.106.24-11.048,0-1.261.66-3.482,2.912-3.482,2.161,0,2.7,1.516,2.7,3.512,0,1.921-.21,11.288-.075,11.378.12.12,6.334.12,6.379-.24.12-1.921.285-9.006.285-11.783C100.042,96.7,97.76,93.3,92.6,93.3Z" transform="translate(-64.478 -79.436)" fill="#fff"/>
  </g>
</svg>
